Un petit coup de polish Nettoyage de fichiers Excel avec R
…
df_c24_full

# A tibble: 6,732 × 5
   annee code_dep lib_dep age_mere       perc_naiss
   <dbl> <chr>    <chr>   <chr>               <dbl>
 1  2022 01       Ain     < 20 ans              1.2
 2  2022 01       Ain     20 à 24 ans           8.9
 3  2022 01       Ain     25 à 29 ans          29.8
 4  2022 01       Ain     30 à 34 ans          37.1
 5  2022 01       Ain     35 à 39 ans          18.9
 6  2022 01       Ain     40 ans ou plus        4.1
 7  2022 02       Aisne   < 20 ans              3.6
 8  2022 02       Aisne   20 à 24 ans          18.3
 9  2022 02       Aisne   25 à 29 ans          30.1
10  2022 02       Aisne   30 à 34 ans          29.6
# ℹ 6,722 more rows

avec tidyxl + unpivotr

df_cells_c24 <- xlsx_cells(path_c24)

df_cells_c24

# A tibble: 10,237 × 24
   sheet address   row   col is_blank content data_type error logical numeric
   <chr> <chr>   <int> <int> <lgl>    <chr>   <chr>     <chr> <lgl>     <dbl>
 1 2022  A1          1     1 FALSE    256     character <NA>  NA           NA
 2 2022  B1          1     2 TRUE     <NA>    blank     <NA>  NA           NA
 3 2022  C1          1     3 TRUE     <NA>    blank     <NA>  NA           NA
 4 2022  D1          1     4 TRUE     <NA>    blank     <NA>  NA           NA
 5 2022  E1          1     5 TRUE     <NA>    blank     <NA>  NA           NA
 6 2022  F1          1     6 TRUE     <NA>    blank     <NA>  NA           NA
 7 2022  G1          1     7 TRUE     <NA>    blank     <NA>  NA           NA
 8 2022  H1          1     8 TRUE     <NA>    blank     <NA>  NA           NA
 9 2022  F2          2     6 TRUE     <NA>    blank     <NA>  NA           NA
10 2022  G2          2     7 TRUE     <NA>    blank     <NA>  NA           NA
# ℹ 10,227 more rows
# ℹ 14 more variables: date <dttm>, character <chr>,
#   character_formatted <list>, formula <chr>, is_array <lgl>,
#   formula_ref <chr>, formula_group <int>, comment <chr>, height <dbl>,
#   width <dbl>, row_outline_level <dbl>, col_outline_level <dbl>,
#   style_format <chr>, local_format_id <int>
…
df_cells_c24 |>
  filter(row >= 5) |>
  group_by(sheet) |>
  behead("up-left", "typ_var") |>
  behead("up", "mod_var") |>
  behead("left", "code_dep") |>
  behead("left", "lib_dep") |>
  ungroup() |>
  mutate(mod_var = str_trim(mod_var)) |> 
  select(sheet, typ_var, mod_var, code_dep, lib_dep, numeric) |>
  filter(!is.na(code_dep) &
           !code_dep %in% c("F", "M") &
           !is.na(numeric)) 

# A tibble: 6,732 × 6
   sheet typ_var                          mod_var       code_dep lib_dep numeric
   <chr> <chr>                            <chr>         <chr>    <chr>     <dbl>
 1 2012  "Part des accouchements\n(en %)" < 20 ans      01       Ain         1.5
 2 2012  "Part des accouchements\n(en %)" 20 à 24 ans   01       Ain        13.8
 3 2012  "Part des accouchements\n(en %)" 25 à 29 ans   01       Ain        34.9
 4 2012  "Part des accouchements\n(en %)" 30 à 34 ans   01       Ain        32.7
 5 2012  "Part des accouchements\n(en %)" 35 à 39 ans   01       Ain        13.8
 6 2012  "Part des accouchements\n(en %)" 40 ans ou pl… 01       Ain         3.3
 7 2012  "Part des accouchements\n(en %)" < 20 ans      02       Aisne       4.6
 8 2012  "Part des accouchements\n(en %)" 20 à 24 ans   02       Aisne      20.7
 9 2012  "Part des accouchements\n(en %)" 25 à 29 ans   02       Aisne      33.8
10 2012  "Part des accouchements\n(en %)" 30 à 34 ans   02       Aisne      25.9
# ℹ 6,722 more rows
…
Insee tidyxl + unpivotr

xlsx_cells("data/TCRD_015.xlsx") |>
  filter(sheet == "DEP" & row >= 3) |>
  behead("up-left", "typ_var") |>
  behead("up", "mod_var") |>
  behead("left", "code_dep") |>
  behead("left", "lib_dep") |>
  select(typ_var, mod_var, code_dep, lib_dep, numeric)

# A tibble: 918 × 5
   typ_var                          mod_var  code_dep lib_dep            numeric
   <chr>                            <chr>    <chr>    <chr>                <dbl>
 1 Population active de 15 à 64 ans Ensemble 01       Ain                 320682
 2 Population active de 15 à 64 ans Hommes   01       Ain                 166687
 3 Population active de 15 à 64 ans Femmes   01       Ain                 153995
 4 Population active de 15 à 64 ans Ensemble 02       Aisne               233225
 5 Population active de 15 à 64 ans Hommes   02       Aisne               122874
 6 Population active de 15 à 64 ans Femmes   02       Aisne               110351
 7 Population active de 15 à 64 ans Ensemble 03       Allier              140547
 8 Population active de 15 à 64 ans Hommes   03       Allier               72050
 9 Population active de 15 à 64 ans Femmes   03       Allier               68497
10 Population active de 15 à 64 ans Ensemble 04       Alpes-de-Haute-Pr…   71118
# ℹ 908 more rows
…
# on jointe pour cibler les tableaux
df_cells_faj |>
  inner_join(df_cells_faj_min, by = join_by(sheet)) |>
  inner_join(df_cells_faj_max, by = join_by(sheet)) |>
  filter(between(row, row_min, row_max)) |>
  group_by(sheet) |>
  behead("up-left", "typ_var") |>
  behead("up", "mod_var") |>
  behead("left", "code_dep") |>
  behead("left", "lib_dep") |>
  ungroup() |>
  select(sheet, typ_var, mod_var, code_dep, lib_dep, character, numeric)

# A tibble: 13,542 × 7
   sheet    typ_var                   mod_var code_dep lib_dep character numeric
   <chr>    <chr>                     <chr>   <chr>    <chr>   <chr>       <dbl>
 1 FAJ 2007 Montants engagés pour le… <NA>    <NA>     <NA>    <NA>          NA 
 2 FAJ 2007 Montants engagés pour le… <NA>    01       Ain     <NA>      162614 
 3 FAJ 2007 Montants engagés pour le… <NA>    02       Aisne   <NA>      272858 
 4 FAJ 2007 Montants engagés pour le… <NA>    03       Allier  <NA>       93077 
 5 FAJ 2007 Montants engagés pour le… <NA>    04       Alpes-… <NA>       27873 
 6 FAJ 2007 Montants engagés pour le… <NA>    05       Hautes… <NA>       36875.
 7 FAJ 2007 Montants engagés pour le… <NA>    06       Alpes … <NA>      280812.
 8 FAJ 2007 Montants engagés pour le… <NA>    07       Ardèche <NA>      170098 
 9 FAJ 2007 Montants engagés pour le… <NA>    08       Ardenn… <NA>       88808 
10 FAJ 2007 Montants engagés pour le… <NA>    09       Ariège  <NA>       80606 
# ℹ 13,532 more rows
…
# on reprendre le code du dessus
# et on assemble
map(
  partitions_faj$cells,
  \(data) data |>
    behead("up-left", "typ_var") |>
    behead("up", "mod_var") |>
    behead("left", "code_dep") |>
    behead("left", "lib_dep") |>
    select(typ_var, mod_var, code_dep, lib_dep, character, numeric)
) |>
  set_names("dep", "metro") |>
  list_rbind(names_to = "type_geo")

# A tibble: 2,642 × 7
   type_geo typ_var                   mod_var code_dep lib_dep character numeric
   <chr>    <chr>                     <chr>   <chr>    <chr>   <chr>       <dbl>
 1 dep      "Montant total consommé … <NA>    01       Ain     <NA>       233080
 2 dep      "Montant total consommé … <NA>    02       Aisne   <NA>        86041
 3 dep      "Montant total consommé … <NA>    03       Allier  <NA>       137826
 4 dep      "Montant total consommé … <NA>    04       Alpes-… <NA>       127581
 5 dep      "Montant total consommé … <NA>    05       Hautes… <NA>        72966
 6 dep      "Montant total consommé … <NA>    06       Alpes-… <NA>       553836
 7 dep      "Montant total consommé … <NA>    07       Ardèche <NA>       124944
 8 dep      "Montant total consommé … <NA>    08       Ardenn… <NA>        43854
 9 dep      "Montant total consommé … <NA>    09       Ariège  <NA>        65064
10 dep      "Montant total consommé … <NA>    10       Aube    <NA>       248082
# ℹ 2,632 more rows
…
df_panorama_cleaned

# A tibble: 2,243 × 6
   code_geo                   type_etab   type_var type_places numeric character
   <chr>                      <chr>       <chr>    <chr>         <dbl> <chr>    
 1 "AUVERGNE-\r\nRHÔNE-ALPES" Établissem… Nombre … <NA>            937 <NA>     
 2 "Ain"                      Établissem… Nombre … <NA>             67 <NA>     
 3 "Allier"                   Établissem… Nombre … <NA>             48 <NA>     
 4 "Ardèche"                  Établissem… Nombre … <NA>             65 <NA>     
 5 "Cantal"                   Établissem… Nombre … <NA>             40 <NA>     
 6 "Drôme"                    Établissem… Nombre … <NA>             68 <NA>     
 7 "Isère"                    Établissem… Nombre … <NA>            109 <NA>     
 8 "Loire"                    Établissem… Nombre … <NA>            112 <NA>     
 9 "Haute-Loire"              Établissem… Nombre … <NA>             49 <NA>     
10 "Puy-de-Dôme"              Établissem… Nombre … <NA>             99 <NA>     
# ℹ 2,233 more rows
…
